{
    "cocktails": [
      {
        "id": 1,
        "name": "Mojito",
        "ingredients": [
          { "name": "Rum bianco", "quantities": "50ml" },
          { "name": "Foglie di menta", "quantities": "8-10" },
          { "name": "Succo di lime", "quantities": "20ml" },
          { "name": "Sciroppo di zucchero", "quantities": "15ml" },
          { "name": "Acqua frizzante", "quantities": "50ml" },
          { "name": "Ghiaccio", "quantities": "qb" }
        ],
        "gradations": "12%",
        "photos": [ "media/mojito/mojito.jpg", "media/mojito/mojito2.jpg", "media/mojito/mojito3.jpg" ],
        "description": "Il Mojito è un cocktail a base di rum bianco, menta fresca, lime, sciroppo di zucchero, acqua frizzante e ghiaccio. Viene servito in un bicchiere alto e decorato con una foglia di menta. Originario di Cuba, è uno dei cocktail più famosi al mondo. Ha un sapore fresco e piacevolmente acido, perfetto per l'estate.",
        "history": "Il Mojito è un cocktail che risale almeno al XIX secolo, quando era popolare tra i marinai cubani. Nel corso del tempo è diventato un simbolo della cultura cubana e si è diffuso in tutto il mondo. Nel 2006, il Mojito è diventato ancora più famoso grazie al film 'Miami Vice', in cui il personaggio di Colin Farrell lo beve in un bar di Miami.",
        "preparation":"In un bicchiere highball, pestare delicatamente le foglie di menta con lo sciroppo di zucchero e il succo di lime. Aggiungere il rum bianco e il ghiaccio e mescolare bene. Completare con acqua frizzante e decorare con una foglia di menta e una fetta di lime. Servire subito.",
        "ranking": 4.8
      },
      {
        "id": 2,
        "name": "Martini",
        "ingredients": [
          { "name": "Gin", "quantities": "60ml" },
          { "name": "Vermouth secco", "quantities": "15ml" },
          { "name": "Oliva", "quantities": "1" },
          { "name": "Ghiaccio", "quantities": "qb" }
        ],
        "gradations": "22%",
        "photos": [ "media/martini/martini.jpg", "media/martini/martini2.jpg", "media/martini/martini3.jpg" ],
        "description": "Il Martini è un cocktail a base di gin e vermouth secco, servito in una coppetta da cocktail e guarnito con un'oliva. È un cocktail che richiede una preparazione semplice ma precisa per ottenere il massimo del suo sapore e del suo equilibrio.",
        "history": "Il Martini ha origini antiche e incerte, ma si dice che abbia preso il nome dal marchio di vermouth Martini & Rossi, utilizzato per la preparazione del cocktail. Nel corso degli anni, il Martini ha subito diverse evoluzioni e varianti, diventando un'icona della cultura del cocktail.",
        "preparation": "Per preparare il Martini, riempire una coppetta da cocktail con ghiaccio per raffreddarla. Nel frattempo, mescolare il gin e il vermouth secco in un mixing glass con ghiaccio e mescolare delicatamente per circa 30 secondi. Eliminare il ghiaccio dalla coppetta da cocktail e versare il contenuto del mixing glass. Guarnire con un'oliva e servire.",
        "ranking": 4.9
      },
      {
        "id": 3,
        "name": "Cosmopolitan",
        "ingredients": [
          { "name": "Vodka", "quantities": "50ml" },
          { "name": "Triple sec", "quantities": "25ml" },
          { "name": "Succo di lime", "quantities": "20ml" },
          { "name": "Succo di mirtillo rosso", "quantities": "30ml" },
          { "name": "Ghiaccio", "quantities": "qb" }
        ],
        "gradations": "15%",
        "photos": [ "media/cosmopolitan/cosmopolitan.jpg", "media/cosmopolitan/cosmopolitan2.jpg", "media/cosmopolitan/cosmopolitan3.jpeg" ],
        "description": "Il Cosmopolitan è un cocktail a base di vodka, triple sec, succo di lime e succo di mirtillo rosso. È un cocktail elegante e sofisticato, perfetto per una serata con gli amici o per un'occasione speciale.",
        "history": "Il Cosmopolitan è un cocktail relativamente recente, nato negli anni '80. È diventato famoso grazie alla serie televisiva 'Sex and the City', dove era spesso bevuto dalle protagoniste. Da allora, il Cosmopolitan è diventato uno dei cocktail più popolari al mondo.",
        "preparation": "Per preparare il Cosmopolitan, riempire uno shaker con ghiaccio. Aggiungere la vodka, il triple sec, il succo di lime e il succo di mirtillo rosso. Agitare energicamente per circa 15-20 secondi e filtrare il contenuto in un bicchiere martini. Guarnire con una scorza di limone o con un'arancia candita.",
        "ranking": 4.7
      },
      {
        "id": 4,
        "name": "Bloody Mary",
        "ingredients": [
          { "name": "Vodka", "quantities": "50ml" },
          { "name": "Succo di pomodoro", "quantities": "100ml" },
          { "name": "Succo di limone", "quantities": "10ml" },
          { "name": "Salsa Worcestershire", "quantities": "1 cucchiaino" },
          { "name": "Tabasco", "quantities": "1 goccia" },
          { "name": "Sale", "quantities": "qb" },
          { "name": "Pepe nero", "quantities": "qb" },
          { "name": "Ghiaccio", "quantities": "qb" },
          { "name": "Sedano", "quantities": "1 gambo" }
        ],
        "gradations": "10%",
        "photos": [ "media/bloody_mary/bloody_mary.jpg", "media/bloody_mary/bloody_mary2.jpg", "media/bloody_mary/bloody_mary3.jpg" ],
        "description": "Il Bloody Mary è un cocktail a base di vodka, succo di pomodoro e spezie, tipicamente servito come aperitivo o bevanda per brunch.",
        "history": "Il Bloody Mary fu inventato nel 1920 dal barman Fernand Petiot al New York's St. Regis Hotel. Fu servito per la prima volta come \"Red Snapper\" e conteneva vodka, succo di pomodoro, limone e spezie.",
        "preparation": "Aggiungere tutti gli ingredienti, tranne il sedano, in uno shaker con ghiaccio. Shakerare bene e versare in un bicchiere alto con ghiaccio. Guarnire con un gambo di sedano.",
        "ranking": 4.5
      },
      {
        "id": 5,
        "name": "Negroni",
        "ingredients": [
          { "name": "Gin", "quantities": "30ml" },
          { "name": "Vermouth rosso", "quantities": "30ml" },
          { "name": "Campari", "quantities": "30ml" },
          { "name": "Arancia", "quantities": "1" },
          { "name": "Ghiaccio", "quantities": "qb" }
        ],
        "gradations": "24%",
        "photos": [ "media/negroni/negroni.jpg", "media/negroni/negroni2.jpg", "media/negroni/negroni3.jpg" ],
        "description": "Il Negroni è un cocktail italiano a base di gin, vermouth rosso e Campari, servito su ghiaccio e guarnito con una fetta di arancia. È un cocktail molto amaro e robusto, con un equilibrio perfetto tra i tre ingredienti principali.",
        "history": "Il Negroni è stato creato a Firenze nel 1919 dal conte Camillo Negroni, che chiese al barista del Caffè Casoni di sostituire l'acqua gassata con gin nel suo Americano. Questo cocktail è diventato rapidamente popolare in tutta Italia e ha acquisito fama internazionale negli anni '40 e '50.",
        "preparation": "Versare il gin, il vermouth rosso e il Campari in un bicchiere Old Fashioned riempito di ghiaccio. Mescolare delicatamente con un cucchiaino e guarnire con una fetta di arancia.",
        "ranking": 4.5
      },
      {
        "id": 6,
        "name": "Manhattan",
        "ingredients": [
          { "name": "Whiskey", "quantities": "50ml" },
          { "name": "Vermouth rosso", "quantities": "25ml" },
          { "name": "Angostura", "quantities": "2 gocce" },
          { "name": "Ciliegia", "quantities": "1" },
          { "name": "Ghiaccio", "quantities": "qb" }
        ],
        "gradations": "28%",
        "photos": [ "media/manhattan/manhattan.jpeg", "media/manhattan/manhattan2.jpeg", "media/manhattan/manhattan3.jpg" ],
        "description": "Il Manhattan è un cocktail alcolico a base di whisky e vermouth rosso, tipico della tradizione americana.",
        "history": "Il Manhattan è stato creato intorno al 1880 e prende il nome dall'omonimo quartiere di New York City. È diventato un classico dei cocktail americani ed è stato reso celebre da personaggi come Frank Sinatra e John F. Kennedy.",
        "preparation": "Per preparare un Manhattan, mettete del ghiaccio in un mixing glass e versate il whisky, il vermouth rosso e l'Angostura. Mescolate delicatamente con un cucchiaino da bar e filtrate il liquido in un bicchiere da cocktail precedentemente raffreddato. Guarnite con una ciliegia. ",
        "ranking": 4.5
      },
      {
        "id": 7,
        "name": "Daiquiri",
        "ingredients": [
          { "name": "Rum bianco", "quantities": "60ml" },
          { "name": "Succo di lime", "quantities": "30ml" },
          { "name": "Sciroppo di zucchero", "quantities": "15ml" },
          { "name": "Ghiaccio", "quantities": "qb" }
        ],
        "gradations": "18%",
        "photos": [ "media/daiquiri/daiquiri.jpg", "media/daiquiri/daiquiri2.jpg", "media/daiquiri/daiquiri3.jpeg" ],
        "description": "Il Daiquiri è un cocktail a base di rum, succo di lime e sciroppo di zucchero, servito in un bicchiere da cocktail. È un drink dolce e acido, con un aroma intenso di rum.",
        "history": "Il Daiquiri ha origini cubane e prende il nome dalla città di Daiquiri, dove il cocktail è stato creato. È stato uno dei drink preferiti da Hemingway e altri scrittori americani durante il loro soggiorno a Cuba negli anni '30.",
        "preparation": "Per preparare un Daiquiri, versare il rum bianco, il succo di lime e lo sciroppo di zucchero in uno shaker con il ghiaccio. Agitare vigorosamente e filtrare in un bicchiere da cocktail precedentemente raffreddato. Decorare con una fetta di lime o una ciliegia.",
        "ranking": 4.5
      },
      {
        "id": 8,
        "name": "Margarita",
        "ingredients": [
          { "name": "Tequila", "quantities": "50ml" },
          { "name": "Triple sec", "quantities": "25ml" },
          { "name": "Succo di lime", "quantities": "25ml" },
          { "name": "Sale", "quantities": "qb" },
          { "name": "Ghiaccio", "quantities": "qb" }
        ],
        "gradations": "28%",
        "photos": [ "media/margarita/margarita.jpg", "media/margarita/margarita2.jpg", "media/margarita/margarita3.jpeg" ],
        "description": "The Margarita is a classic tequila-based cocktail that has been popular since the 1930s. It is typically served in a salt-rimmed glass and is a refreshing and tangy drink.",
        "history": "The origins of the Margarita are somewhat disputed, but one popular theory is that it was created by a bartender named Carlos 'Danny' Herrera in Tijuana, Mexico in the 1930s. The story goes that a customer asked for a drink that was not as harsh as a straight shot of tequila, and Herrera combined tequila, lime, and triple sec to create the Margarita. Another theory is that the Margarita was actually created by socialite Margarita Sames at her home in Acapulco in the 1940s.",
        "preparation": "To make a Margarita, begin by rimming the edge of a glass with salt. Then, in a cocktail shaker filled with ice, combine tequila, triple sec, and lime juice. Shake well and strain into the prepared glass. Garnish with a lime wedge and enjoy!",
        "ranking": 4.5
      },
      {
        "id": 9,
        "name": "Moscow Mule",
        "ingredients": [
          { "name": "Vodka", "quantities": "50ml" },
          { "name": "Succo di lime", "quantities": "25ml" },
          { "name": "Ginger beer", "quantities": "100ml" },
          { "name": "Ghiaccio", "quantities": "qb" },
          { "name": "Foglie di menta", "quantities": "3-4" }
        ],
        "gradations": "10-20%",
        "photos": ["media/moscow_mule/moscow_mule.jpg", "media/moscow_mule/moscow_mule2.jpg", "media/moscow_mule/moscow_mule3.jpeg" ],
        "description": "Il Moscow Mule è un cocktail a base di vodka, succo di lime e ginger beer, servito in un bicchiere highball. Ha un sapore fresco e speziato, dovuto alla presenza dello zenzero nella ginger beer.",
        "history": "Il Moscow Mule è stato creato negli anni '40, quando la vodka non era ancora molto popolare negli Stati Uniti. La storia racconta che il proprietario di un'azienda produttrice di ginger beer e il proprietario di una distilleria di vodka si incontrarono in un bar e, per promuovere i loro prodotti, decisero di creare insieme un nuovo cocktail. Nasce così il Moscow Mule, servito in un bicchiere di rame per mantenere la bevanda fresca più a lungo.",
        "preparation": "Per preparare un Moscow Mule, versare la vodka e il succo di lime in un bicchiere highball pieno di ghiaccio. Aggiungere la ginger beer e mescolare delicatamente. Decorare con alcune foglie di menta fresca e servire.",
        "ranking": 4.6
      },
      {
        "id": 10,
        "name": "Spritz",
        "ingredients": [
          { "name": "Aperol", "quantities": "60ml" },
          { "name": "Prosecco", "quantities": "90ml" },
          { "name": "Soda", "quantities": "30ml" },
          { "name": "Ghiaccio", "quantities": "qb" },
          { "name": "Fettina di arancia", "quantities": "1" }
        ],
        "gradations": "8-11%",
        "photos": [ "media/spritz/spritz.jpg", "media/spritz/spritz2.jpg", "media/spritz/spritz3.jpeg" ],
        "description": "Lo Spritz è un cocktail di origini italiane, che ha avuto grande successo negli ultimi anni. E' un drink molto leggero e rinfrescante, ideale da sorseggiare durante l'aperitivo.",
        "history": "Lo Spritz è un cocktail che ha origini nell'Italia del nord, in particolare nella regione del Veneto. Inizialmente veniva consumato come aperitivo, miscelando vino bianco con soda o acqua frizzante e una spruzzata di bitter. Nel corso degli anni, la ricetta è stata modificata e oggi si prepara con Aperol o Campari, Prosecco e soda, servito con una fettina di arancia.",
        "preparation": "Prendere un bicchiere tumbler alto, riempirlo di ghiaccio e versare l'Aperol. Aggiungere il Prosecco e la soda, mescolare delicatamente con un cucchiaino e guarnire con una fettina di arancia.",
        "ranking": 4.5
      },
      {
        "id": 11,
        "name": "Caipirinha",
        "ingredients": [
          { "name": "Cachaça", "quantities": "50ml" },
          { "name": "Zucchero di canna", "quantities": "2 cucchiaini" },
          { "name": "Limone", "quantities": "1" },
          { "name": "Ghiaccio", "quantities": "qb" },
          { "name": "Foglie di menta", "quantities": "3-4" }
        ],
        "gradations": "20-30%",
        "photos": [ "media/caipirinha/caipirinha.jpg", "media/caipirinha/caipirinha2.jpg", "media/caipirinha/caipirinha3.jpeg" ],
        "description": "La Caipirinha è un cocktail brasiliano a base di Cachaça, zucchero e lime. Viene preparato direttamente nel bicchiere e servito con ghiaccio.",
        "history": "La Caipirinha è un cocktail originario del Brasile, nato nella regione di San Paolo. È diventato il cocktail ufficiale del paese nel 2003. La parola 'Caipirinha' significa 'piccolo contadino' o 'gente di campagna'.",
        "preparation": "Tagliare il lime a pezzetti e metterlo nel bicchiere, insieme allo zucchero di canna. Schiacciare il tutto con un pestello, fino a far uscire il succo del lime. Aggiungere la cachaça e il ghiaccio, e mescolare bene. Guarnire con le foglie di menta.",
        "ranking": 4.5
      },
      {
        "id": 12,
        "name": "Gin Tonic",
        "ingredients": [
          { "name": "Gin", "quantities": "50ml" },
          { "name": "Tonica", "quantities": "150ml" },
          { "name": "Limone", "quantities": "1/2" },
          { "name": "Ghiaccio", "quantities": "qb" },
          { "name": "Rametto di rosmarino", "quantities": "1" }
        ],
        "gradations": "15-20%",
        "photos": [ "media/gin_tonic/gin_tonic.jpg", "media/gin_tonic/gin_tonic2.jpg", "media/gin_tonic/gin_tonic3.jpeg" ],
        "description": "Il Gin Tonic è un cocktail a base di gin e acqua tonica, tipicamente servito in un bicchiere alto con ghiaccio e una fetta di limone. È uno dei cocktail più popolari al mondo, apprezzato per la sua semplicità e la freschezza del sapore.",
        "history": "Il Gin Tonic ha origini britanniche, ed è nato come rimedio contro la malaria nei territori coloniali dell'India. Il gin veniva usato come antimalarico, e l'acqua tonica come antidoto contro la febbre. La miscela dei due ingredienti creava un cocktail dal sapore amaro e forte, che diventò popolare tra gli ufficiali dell'esercito britannico.",
        "preparation": "Per preparare un Gin Tonic, versare il gin in un bicchiere alto con del ghiaccio. Aggiungere l'acqua tonica e una fetta di limone. Mescolare delicatamente e guarnire con un rametto di rosmarino.",
        "ranking": 4.7
      },
      {
        "id": 13,
        "name": "Americano",
        "ingredients": [
          { "name": "Campari", "quantities": "30ml" },
          { "name": "Vermouth rosso", "quantities": "30ml" },
          { "name": "Soda", "quantities": "qb" },
          { "name": "Arancia", "quantities": "1 fetta" },
          { "name": "Ghiaccio", "quantities": "qb" }
        ],
        "gradations": "15-20%",
        "photos": [ "media/americano/americano.jpg", "media/americano/americano2.jpg", "media/americano/americano3.jpg" ],
        "description": "L'Americano è un cocktail a base di Campari, Vermouth rosso e soda. Ha un sapore amaro e leggermente dolce, con note di agrumi e erbe. Viene spesso servito come aperitivo o bevanda rinfrescante in estate.",
        "history":" L'Americano fu creato nel 1860 a Milano da Gaspare Campari, il fondatore della celebre distilleria italiana. Inizialmente noto come 'Milano-Torino' per via delle origini dei suoi ingredienti, il cocktail divenne popolare tra gli americani che lo apprezzavano durante i loro viaggi in Italia. Fu proprio a causa di questa popolarità che il nome del cocktail venne cambiato in 'Americano'.",
        "preparation": "Per preparare l'Americano, si versa Campari e Vermouth rosso in un bicchiere highball pieno di ghiaccio e si aggiunge soda per completare il bicchiere. Si guarnisce con una fetta di arancia.",
        "ranking": 4.5
      },
      {
        "id": 14,
        "name": "Long Island",
        "ingredients": [
          { "name": "Vodka", "quantities": "15ml"},
          { "name": "Gin", "quantities": "15ml"},
          { "name": "Rum bianco", "quantities": "15ml"},
          { "name": "Tequila", "quantities": "15ml"},
          { "name": "Triple sec", "quantities": "15ml"},
          { "name": "Lime", "quantities": "15ml"},
          { "name": "Coca-Cola", "quantities": "qb"},
          { "name": "Ghiaccio", "quantities": "qb" }
        ],
        "gradations": "22-28%",
        "photos": [ "media/long_island/long_island.jpg", "media/long_island/long_island2.jpg", "media/long_island/long_island3.jpg" ],
        "description": "Il Long Island Iced Tea è un cocktail molto popolare nei bar di tutto il mondo. Il suo sapore intenso e la sua gradazione alcolica elevata lo rendono un'opzione preferita per chi cerca un drink forte e rinfrescante allo stesso tempo.",
        "history": "La storia del Long Island Iced Tea è incerta e ci sono molte leggende sulla sua origine. Si dice che sia stato creato durante il Proibizionismo, quando le persone cercavano di nascondere l'alcolico aggiungendo altri ingredienti per mascherare il sapore. Altre storie attribuiscono l'invenzione del cocktail a un barista di Long Island che cercava di svuotare il magazzino dei liquori miscelando diverse bottiglie rimaste.",
        "preparation": "Per preparare un Long Island Iced Tea, è necessario versare tutti gli ingredienti tranne la Coca-Cola in uno shaker con ghiaccio e agitare bene. Quindi, versare il contenuto in un bicchiere alto con ghiaccio fresco e aggiungere la Coca-Cola. Decorare con una fetta di limone o una foglia di menta.",
        "ranking": 4.7
     },
     {
        "id": 15,
        "name": "Campari e Prosecco",
        "ingredients": [
          {"name": "Campari","quantities": "30ml" },
          {"name": "Prosecco","quantities": "90ml" },
          {"name": "Ghiaccio","quantities": "qb" },
          {"name": "Arancia","quantities": "1 fetta" }
        ],
        "gradations": "8-12%",
        "photos": [ "media/campari_prosecco/campari_prosecco.jpg", "media/campari_prosecco/campari_prosecco2.jpg", "media/campari_prosecco/campari_prosecco3.jpeg" ],
        "description": "Il Campari e Prosecco è un cocktail fresco e frizzante, perfetto per l'aperitivo. Il suo gusto amaro e leggermente dolce lo rende ideale come drink dissetante e rinfrescante.",
        "history": "Il Campari e Prosecco è un cocktail italiano, nato negli anni '30 come variante del Campari Soda. Negli anni si è evoluto nella ricetta attuale, con l'aggiunta del Prosecco.",
        "preparation": "Per preparare il Campari e Prosecco, versare il Campari in un bicchiere alto con ghiaccio. Aggiungere il Prosecco e mescolare delicatamente. Decorare con una fetta di arancia e servire subito.",
        "ranking": 4.5
      },
      {
        "id": 16,
        "name": "Sex on the Beach",
        "ingredients": [
          {"name": "Vodka","quantities": "30ml" },
          {"name": "Peach schnapps","quantities": "15ml" },
          {"name": "Succo d'arancia","quantities": "60ml" },
          {"name": "Succo di mirtillo rosso","quantities": "60ml" },
          {"name": "Ghiaccio","quantities": "qb" },
          {"name": "Arancia","quantities": "1 fetta" }
        ],
        "gradations": "8-15%",
        "photos": [ "media/sex_on_the_beach/sex_on_the_beach.jpeg", "media/sex_on_the_beach/sex_on_the_beach2.jpg", "media/sex_on_the_beach/sex_on_the_beach3.jpg" ],
        "description": "Il Sex on the Beach è un cocktail a base di vodka, succo d'arancia, succo di mirtillo rosso e Peach Schnapps. Si tratta di un cocktail dolce, fresco e fruttato, perfetto per l'estate.",
        "history": "Il Sex on the Beach è stato creato negli anni '80 negli Stati Uniti, e da allora è diventato uno dei cocktail più popolari al mondo.",
        "preparation": "Per preparare il Sex on the Beach, versare la vodka, il Peach Schnapps, il succo d'arancia e il succo di mirtillo rosso in uno shaker pieno di ghiaccio. Shakerare energicamente e versare in un bicchiere pieno di ghiaccio. Guarnire con una fetta di arancia e servire.",
        "ranking": 4.5
      },
      {
        "id": 17,
        "name": "Whiskey Sour",
        "ingredients": [
          { "name": "Bourbon", "quantities": "60ml" },
          { "name": "Succo di limone", "quantities": "30ml" },
          { "name": "Sciroppo di zucchero", "quantities": "22ml" },
          { "name": "Ghiaccio", "quantities": "qb" },
          { "name": "Ciliegia", "quantities": "1" }
        ],
        "gradations": "12-17%",
        "photos": [ "media/whiskey_sour/whiskey_sour.jpg", "media/whiskey_sour/whiskey_sour2.jpg", "media/whiskey_sour/whiskey_sour3.jpeg" ],
        "description": "Il Whiskey Sour è un cocktail a base di whiskey, succo di limone, sciroppo di zucchero, ghiaccio e decorato con una ciliegia. È un cocktail bilanciato e piacevole al palato, con un aroma intenso e un gusto agrodolce.",
        "history": "Il Whiskey Sour è un cocktail molto popolare che risale almeno al XIX secolo. La sua origine esatta è incerta, ma si pensa che sia nato come variante del Brandy Sour, un cocktail simile a base di brandy.",
        "preparation": "Per preparare un Whiskey Sour, in un cocktail shaker con ghiaccio, aggiungere il bourbon, il succo di limone e lo sciroppo di zucchero. Agitare bene e versare in un bicchiere basso con ghiaccio. Decorare con una ciliegia.",
        "ranking": 4.5
      },
      {
        "id": 18,
        "name": "Espresso Martini",
        "ingredients": [
          { "name": "Vodka", "quantities": "45ml" },
          { "name": "Caffè espresso", "quantities": "30ml" },
          { "name": "Liquore al caffè", "quantities": "15ml" },
          { "name": "Sciroppo di zucchero", "quantities": "15ml" },
          { "name": "Ghiaccio", "quantities": "qb" },
          { "name": "Grani di caffè", "quantities": "3" }
        ],
        "gradations": "20%",
        "photos": [ "media/espresso_martini/espresso_martini.jpg", "media/espresso_martini/espresso_martini2.jpg", "media/espresso_martini/espresso_martini3.jpeg" ],
        "description": "L'Espresso Martini è un cocktail a base di caffè inventato negli anni '80 da un barman di Londra. È diventato un classico dei cocktail e viene spesso servito come digestivo.",
        "history": "L'Espresso Martini è stato inventato nel 1983 da Dick Bradsell, un barman del Soho Brasserie a Londra. Secondo la leggenda, una celebrità britannica gli chiese di creare un cocktail che lo avrebbe tenuto sveglio per tutta la serata, ma che fosse anche delizioso. Bradsell, con la sua creatività, creò l'Espresso Martini e la celebrità ne rimase così colpita che iniziò a diffonderlo tra i suoi amici VIP.",
        "preparation": "Per preparare l'Espresso Martini, versare la vodka, il caffè espresso, il liquore al caffè e lo sciroppo di zucchero in uno shaker con del ghiaccio. Agitare energicamente per alcuni secondi e quindi versare il contenuto in una coppetta da cocktail precedentemente raffreddata. Decorare con i grani di caffè sulla superficie.",
        "ranking": 4.5
      },
      {
        "id": 19,
        "name": "Mai Tai",
        "ingredients": [
          {"name": "Rum bianco","quantities": "30ml" },
          {"name": "Rum scuro","quantities": "30ml" },
          {"name": "Liquore all'arancia","quantities": "15ml" },
          {"name": "Sciroppo di orzata","quantities": "15ml" },
          {"name": "Succo di lime","quantities": "30ml" },
          {"name": "Ghiaccio","quantities": "qb" },
          {"name": "Foglia di menta","quantities": "1" },
          {"name": "Ciliegia","quantities": "1" }
        ],
        "gradations": "20%",
        "photos": [ "media/mai_tai/mai_tai.jpg", "media/mai_tai/mai_tai2.jpeg", "media/mai_tai/mai_tai3.jpeg" ],
        "description": "Il Mai Tai è un cocktail classico originario della California e reso popolare negli anni '50. Si tratta di una bevanda a base di rum con aromi di arancia, mandorla e lime.",
        "history": "Il Mai Tai è stato inventato da Victor J. Bergeron, anche conosciuto come Trader Vic, nel 1944. Ha creato il cocktail nel suo ristorante a Oakland, California, e rapidamente divenne popolare tra i suoi clienti.",
        "preparation": "Per preparare un Mai Tai, combinare il rum bianco e scuro, il liquore all'arancia, lo sciroppo di orzata e il succo di lime in uno shaker con ghiaccio. Agitare bene e filtrare in un bicchiere pieno di ghiaccio tritato. Guarnire con un rametto di menta e una ciliegia.",
        "ranking": 4.5
      },
      {
        "id": 20,
        "name": "Blue Hawaiian",
        "ingredients": [
          {"name": "Rum bianco","quantities": "30ml" },
          {"name": "Blue Curaçao","quantities": "30ml" },
          {"name": "Crema di cocco","quantities": "30ml" },
          {"name": "Succo d'ananas","quantities": "90ml" },
          {"name": "Ghiaccio","quantities": "qb" },
          {"name": "Fettina d'ananas","quantities": "1" },
          {"name": "Ciliegia","quantities": "1" }
        ],
        "gradations": "14%",
        "photos": [ "media/blue_hawaiian/blue_hawaiian.jpg", "media/blue_hawaiian/blue_hawaiian2.jpg", "media/blue_hawaiian/blue_hawaiian3.jpg" ],
        "description":"Il Blue Hawaiian è un cocktail tropicale fatto con rum, blue curaçao, crema di cocco e succo di ananas. È una bevanda rinfrescante e colorata perfetta per l'estate.",
        "history":"Il Blue Hawaiian è stato creato negli anni '50 in Hawaii, dove è diventato una bevanda popolare tra i turisti. Spesso viene servito in un bicchiere alto con una fetta di ananas e una ciliegia in cima.",
        "preparation":"Per preparare un Blue Hawaiian, mescolare il rum bianco, il blue curaçao, la crema di cocco e il succo di ananas in uno shaker con ghiaccio. Agitare bene e filtrare in un bicchiere pieno di ghiaccio tritato. Guarnire con una fetta di ananas e una ciliegia.",
        "ranking": 4.2
    },
    {
      "id": 21,
      "name": "Sake Martini",
      "ingredients": [
        {"name": "Sake","quantities": "60 ml" },
        {"name": "Gin","quantities": "30 ml" },
        {"name": "Lime","quantities": "1/4" },
        {"name": "Scaglie di sale rosa dell'Himalaya","quantities": "qb" }
      ],
      "gradations": "17%",
      "photos": [ "media/sake_martini/sake_martini.jpg", "media/sake_martini/sake_martini2.jpg", "media/sake_martini/sake_martini3.jpeg" ],
      "description": "Il Sake Martini è un cocktail a base di sake e gin con un tocco di lime e sale rosa dell'Himalaya.",
      "history": "Il Sake Martini è una creazione relativamente recente che ha guadagnato popolarità negli ultimi anni grazie all'aumento dell'interesse per la cultura del sake.",
      "preparation": "Per preparare il Sake Martini, mescolare il sake, il gin, il lime e le scaglie di sale rosa dell'Himalaya in uno shaker con del ghiaccio. Agitare bene e filtrare in una coppetta da martini. Servire decorando con una scorza di lime o una foglia di menta fresca.",
      "ranking": 4.5
    },
    {
      "id": 22,
      "name": "Lychee Martini",
      "ingredients": [
        {"name": "Vodka","quantities": "45 ml" },
        {"name": "Sciroppo di lychee","quantities": "22,5 ml" },
        {"name": "Succo di lime fresco","quantities": "22,5 ml" },
        {"name": "Lychee in scatola","quantities": "1" }
      ],
      "gradations": "15%",
      "photos": [ "media/lychee_martini/lychee_martini.jpg", "media/lychee_martini/lychee_martini2.jpg", "media/lychee_martini/lychee_martini3.jpg" ],
      "description": "Il Lychee Martini è un cocktail fresco e fruttato, con una base di vodka e sciroppo di lychee, completato dal succo di lime fresco e un frutto di lychee.",
      "history": "Il Lychee Martini è stato inventato negli anni '90 e si è rapidamente diffuso nei bar di tutto il mondo grazie alla sua combinazione di sapori esotici e moderni.",
      "preparation": "Per preparare il Lychee Martini, mescolare la vodka, lo sciroppo di lychee e il succo di lime fresco in uno shaker con del ghiaccio. Agitare bene e filtrare in una coppetta da martini. Servire decorando con un frutto di lychee.",
      "ranking": 4.2
    },
    {
      "id": 23,  
      "name": "Bellini",
      "ingredients": [
        { "name": "Pesca bianca", "quantities": "100 g" },
        { "name": "Prosecco", "quantities": "150 ml" },
        { "name": "Sciroppo di zucchero", "quantities": "20 ml" }
      ],
      "gradations": "5%",
      "photos": [ "media/bellini/bellini.jpg", "media/bellini/bellini2.jpg", "media/bellini/bellini3.jpg" ],
      "description": "Il Bellini è un cocktail dolce e fruttato originario di Venezia. È fatto con purè di pesca bianca e prosecco, e può essere aromatizzato con sciroppo di zucchero.",
      "history": "Il Bellini è stato creato alla fine degli anni '30 dal proprietario del celebre Harry's Bar di Venezia, Giuseppe Cipriani. Il nome del cocktail si ispira al colore del mantello del santo del quadro di Giovanni Bellini, presente nella Basilica di San Giovanni e Paolo a Venezia.",
      "preparation": "Per preparare il Bellini, si inizia frullando 100g di pesca bianca in un frullatore ad immersione fino a ottenere un purè. Si aggiunge quindi 20 ml di sciroppo di zucchero e si mescola bene. Si versa poi il composto in una flûte e si aggiunge lentamente 150 ml di prosecco freddo. Si può decorare con una fetta di pesca o una fogliolina di menta.",
      "ranking": 4.5
    },
    {
      "id": 24,
      "name": "Miele d'Amore",
      "ingredients": [
        {"name": "Miele","quantities": "20 ml" },
        {"name": "Gin","quantities": "60 ml" },
        {"name": "Succo di limone","quantities": "20 ml" },
        {"name": "Liquore al miele","quantities": "10 ml" },
        {"name": "Acqua tonica","quantities": "60 ml" }
      ],
      "gradations": "15%",
      "photos": [ "media/miele_amore/miele_amore.jpeg", "media/miele_amore/miele_amore2.jpeg", "media/miele_amore/miele_amore3.jpg" ],
      "description": "Il Miele d'Amore è un cocktail fresco e leggero, perfetto per una serata estiva in compagnia. L'aroma delicato del miele si sposa alla perfezione con il gusto deciso del gin, mentre il succo di limone e l'acqua tonica donano una nota fresca e frizzante.",
      "history": "Il Miele d'Amore è un cocktail moderno, creato da un bartender italiano alla ricerca di un nuovo drink leggero e rinfrescante. La ricetta è stata ispirata dalla tradizione italiana dell'aperitivo, ma con un tocco personale dato dall'aggiunta del miele.",
      "preparation": "Per preparare il Miele d'Amore, riempire uno shaker con cubetti di ghiaccio e aggiungere il miele, il gin, il succo di limone e il liquore al miele. Agitare vigorosamente per qualche secondo, quindi versare il contenuto in un bicchiere alto pieno di ghiaccio. Completare con l'acqua tonica e decorare con una fetta di limone.",
      "ranking": 4.2
    },
    {
      "id": 25,
      "name": "Rusty Nail",
      "ingredients": [
        {"name": "Scotch Whisky","quantities": "50 ml"},
        {"name": "Drambuie","quantities": "25 ml"}
      ],
      "gradations": "40%",
      "photos": [ "media/rusty_nail/rusty_nail.jpg", "media/rusty_nail/rusty_nail2.jpg", "media/rusty_nail/rusty_nail3.jpg" ],
      "description": "Il Rusty Nail è un cocktail dal sapore deciso e avvolgente, perfetto per gli amanti del whisky. Il gusto forte e affumicato del whisky si abbina alla perfezione con la dolcezza del Drambuie, creando un mix equilibrato e armonioso.",
      "history": "Il Rusty Nail è un cocktail che risale agli anni '30 del XX secolo e che si pensa sia stato creato da un bartender scozzese. Inizialmente il drink era molto popolare tra i marinai, che apprezzavano il suo sapore forte e deciso.",
      "preparation": "Per preparare il Rusty Nail, riempire un bicchiere Old Fashioned con cubetti di ghiaccio. Versare il whisky e il Drambuie nel bicchiere e mescolare delicatamente con un cucchiaino. Decorare con una scorza di limone o di arancia.",
      "ranking": 4.5
    },
    {
      "id": 26,
      "name": "Sazerac",
      "ingredients": [
      {"name": "Whiskey Rye", "quantities": "50ml"},
      {"name": "Zucchero", "quantities": "1 cubetto"},
      {"name": "Peychaud's Bitter", "quantities": "3-4 gocce"},
      {"name": "Assenzio", "quantities": "1 spruzzo"},
      {"name": "Ghiaccio", "quantities": "qb"},
      {"name": "Limone", "quantities": "1 fetta"}
      ],
      "gradations": "47%",
      "photos": [ "media/sazerac/sazerac.jpg", "media/sazerac/sazerac2.jpg", "media/sazerac/sazerac3.jpeg" ],
      "description": "Il Sazerac è un cocktail a base di Whiskey Rye, sciroppo di zucchero, Peychaud's Bitters, assenzio e scorza di limone. È considerato il cocktail più antico degli Stati Uniti ed è originario di New Orleans. Ha un sapore intenso e speziato, con una nota di anice data dall'assenzio.",
      "history": "Il Sazerac è stato inventato nel 1838 dal farmacista Antoine Peychaud di New Orleans. Inizialmente il cocktail veniva preparato con brandy al posto del whiskey e assenzio al posto del Peychaud's Bitters. Nel 1873, a causa della fillossera che distrusse le viti in Europa, il brandy divenne difficile da reperire e il whiskey rye prese il suo posto.",
      "preparation":"In un bicchiere Old Fashioned raffreddato con ghiaccio, mescolare lo sciroppo di zucchero, Peychaud's Bitters e un po' di acqua. Aggiungere il whiskey rye e un cubetto di ghiaccio e mescolare delicatamente. Aggiungere l'assenzio e mescolare ancora. Strizzare la scorza di limone sopra il bicchiere per spruzzare l'olio essenziale sulla superficie del cocktail e decorare con la scorza di limone.",
      "ranking": 4.6,
      "anno": 1838
    },
    {
      "id": 27,
      "name": "Boulevardier",
      "ingredients": [
      {"name": "Whiskey Bourbon", "quantities": "30ml"},
      {"name": "Vermouth Rosso", "quantities": "30ml"},
      {"name": "Campari", "quantities": "30ml"},
      {"name": "Scorza di arancia", "quantities": "1"}
      ],
      "gradations": "30%",
      "photos": [ "media/boulevardier/boulevardier.jpg", "media/boulevardier/boulevardier2.jpg", "media/boulevardier/boulevardier3.jpeg" ],
      "description": "Il Boulevardier è un cocktail a base di Whiskey Bourbon, Vermouth Rosso, Campari e scorza di arancia. È un cocktail elegante e robusto, perfetto per gli amanti del whiskey e dei bitter. ",
      "history": "Il Boulevardier è stato creato negli anni '20 del XX secolo da un americano di nome Erskine Gwynne, che si era trasferito a Parigi e fondato la rivista 'Boulevardier'. Il cocktail, ispirato al Negroni, è stato introdotto in America nel 1930 dal barman Harry McElhone, che lo ha servito nel suo celebre Harry's Bar di New York.",
      "preparation":"In un bicchiere Old Fashioned raffreddato con ghiaccio, mescolare il whiskey Bourbon, il Vermouth Rosso e il Campari. Aggiungere un cubetto di ghiaccio e mescolare delicatamente. Strizzare la scorza di arancia sopra il bicchiere per spruzzare l'olio essenziale sulla superficie del cocktail e decorare con la scorza di arancia.",
      "ranking": 4.5,
      "anno": 1927
      },
      {
        "id": 28,
        "name": "Martinez",
        "ingredients": [
        {"name": "Gin", "quantities": "60ml"},
        {"name": "Vermouth Rosso", "quantities": "15ml"},
        {"name": "Maraschino", "quantities": "7.5ml"},
        {"name": "Bitter all'arancia", "quantities": "1 dash"},
        {"name": "Scorza di limone", "quantities": "1"}
        ],
        "gradations": "26%",
        "photos": [ "media/martinez/martinez.jpeg", "media/martinez/martinez2.jpg", "media/martinez/martinez3.jpg" ],
        "description": "Il Martinez è un cocktail a base di gin, vermouth rosso, maraschino, bitter all'arancia e scorza di limone. È un cocktail forte e aromatico, con un sapore secco e leggermente dolce. Spesso considerato il predecessore del Martini, è un classico della mixology.",
        "history": "Il Martinez è stato creato nella seconda metà del XIX secolo a San Francisco. Esistono diverse storie sull'origine del cocktail, ma la più accreditata lo attribuisce al barman Julio Richelieu, che lo avrebbe creato per un minatore di nome Martinez. Il cocktail è diventato popolare negli anni '80 del XIX secolo, ma è poi scomparso dopo l'avvento del Martini.",
        "preparation":"In un mixing glass raffreddato con ghiaccio, mescolare il gin, il vermouth rosso, il maraschino e il bitter all'arancia. Filtrare il cocktail in un bicchiere da cocktail precedentemente raffreddato e decorare con la scorza di limone.",
        "ranking": 4.6,
        "anno": 1860
        }
  ]
}
      